---
http_interactions:
- request:
    method: get
    uri: http://api.lvh.me:3000/photos/tAKXap853rY
    body:
      encoding: US-ASCII
      string: ''
    headers:
      Authorization:
      - Client-ID baaa6a1214d50b3586bec6e06157aab859bd4d86dc0b755360f103f38974edc3
  response:
    status:
      code: 200
      message: 'OK '
    headers:
      Access-Control-Allow-Origin:
      - "*"
      Access-Control-Request-Method:
      - "*"
      Cache-Control:
      - max-age=7200, public
      Content-Type:
      - application/json
      Content-Length:
      - '982'
      Etag:
      - W/"cf452388b17365399d5439cb1ac8651a"
      X-Request-Id:
      - 1d77af28-811a-4c5a-9c02-04cb5b010119
      X-Ratelimit-Limit:
      - '1000'
      X-Ratelimit-Remaining:
      - '962'
      X-Runtime:
      - '0.057564'
      Server:
      - WEBrick/1.3.1 (Ruby/2.1.5/2014-11-13)
      Date:
      - Mon, 22 Jun 2015 19:32:54 GMT
      Connection:
      - Keep-Alive
    body:
      encoding: UTF-8
      string: '{"id":"tAKXap853rY","width":5616,"height":3744,"color":"#755D47","urls":{"regular":"https://unsplash.imgix.net/1/macbook-air-all-faded-and-stuff.jpg?q=75\u0026fm=jpg\u0026w=1080\u0026fit=max\u0026s=41796dca79c250dfd7a5778dc06b7038","small":"https://unsplash.imgix.net/1/macbook-air-all-faded-and-stuff.jpg?q=75\u0026fm=jpg\u0026w=400\u0026fit=max\u0026s=72cd331eccf1b07a32375ff5e8523a12","thumb":"https://unsplash.imgix.net/1/macbook-air-all-faded-and-stuff.jpg?q=75\u0026fm=jpg\u0026w=200\u0026fit=max\u0026s=00215f76a5d93475894d423c550ab7f9"},"links":{"self":"http://api.lvh.me:3000/photos/tAKXap853rY","html":"http://lvh.me:3000/photos/tAKXap853rY","download":"http://lvh.me:3000/photos/tAKXap853rY/download"},"user":{"id":"pXhwzz1JtQU","username":"alejandroescamilla","name":"Alejandro
        Escamilla","links":{"self":"http://api.lvh.me:3000/users/alejandroescamilla","html":"http://lvh.me:3000/alejandroescamilla","photos":"http://api.lvh.me:3000/users/alejandroescamilla/photos"}}}'
    http_version: 
  recorded_at: Mon, 22 Jun 2015 19:32:54 GMT
- request:
    method: get
    uri: http://api.lvh.me:3000/photos/abc123
    body:
      encoding: US-ASCII
      string: ''
    headers:
      Authorization:
      - Client-ID baaa6a1214d50b3586bec6e06157aab859bd4d86dc0b755360f103f38974edc3
  response:
    status:
      code: 404
      message: 'Not Found '
    headers:
      Content-Type:
      - application/json
      Access-Control-Allow-Origin:
      - "*"
      Access-Control-Request-Method:
      - "*"
      Content-Length:
      - '1225'
      Cache-Control:
      - no-cache
      X-Request-Id:
      - 2bba4698-4cdb-4ddb-97e3-318a1e62479f
      X-Ratelimit-Limit:
      - '1000'
      X-Ratelimit-Remaining:
      - '961'
      X-Runtime:
      - '0.022603'
      Server:
      - WEBrick/1.3.1 (Ruby/2.1.5/2014-11-13)
      Date:
      - Mon, 22 Jun 2015 19:32:54 GMT
      Connection:
      - Keep-Alive
    body:
      encoding: UTF-8
      string: '{"errors":["Couldn''t find Photo"]}'
    http_version: 
  recorded_at: Mon, 22 Jun 2015 19:32:54 GMT
- request:
    method: get
    uri: http://api.lvh.me:3000/photos/?page=1&per_page=6
    body:
      encoding: US-ASCII
      string: ''
    headers:
      Authorization:
      - Client-ID baaa6a1214d50b3586bec6e06157aab859bd4d86dc0b755360f103f38974edc3
  response:
    status:
      code: 200
      message: 'OK '
    headers:
      Access-Control-Allow-Origin:
      - "*"
      Access-Control-Request-Method:
      - "*"
      Link:
      - <http://api.lvh.me:3000/photos?page=576&per_page=6>; rel="last", <http://api.lvh.me:3000/photos?page=2&per_page=6>;
        rel="next"
      X-Total:
      - '3454'
      X-Per-Page:
      - '6'
      Cache-Control:
      - max-age=7200, public
      Content-Type:
      - application/json
      Content-Length:
      - '3943'
      Etag:
      - W/"26001960f0fca68e062b30fc44544084"
      X-Request-Id:
      - aaddd248-83f1-45d1-8cbc-5295420c11fb
      X-Ratelimit-Limit:
      - '1000'
      X-Ratelimit-Remaining:
      - '960'
      X-Runtime:
      - '0.067624'
      Server:
      - WEBrick/1.3.1 (Ruby/2.1.5/2014-11-13)
      Date:
      - Mon, 22 Jun 2015 19:34:34 GMT
      Connection:
      - Keep-Alive
    body:
      encoding: UTF-8
      string: '[{"id":"esm80lpf2kE","urls":{"regular":"https://ununsplash.imgix.net/photo-1433116209692-9330d85f1afb?q=75\u0026fm=jpg\u0026w=1080\u0026fit=max\u0026s=639d0f9069b778709d219781497f2268","small":"https://ununsplash.imgix.net/photo-1433116209692-9330d85f1afb?q=75\u0026fm=jpg\u0026w=400\u0026fit=max\u0026s=5619ece8766efd2bbaa3eb18521138ce","thumb":"https://ununsplash.imgix.net/photo-1433116209692-9330d85f1afb?q=75\u0026fm=jpg\u0026w=200\u0026fit=max\u0026s=a3ff5ea821f38e86daab7f9569d657b5"},"links":{"self":"http://api.lvh.me:3000/photos/esm80lpf2kE","html":"http://lvh.me:3000/photos/esm80lpf2kE","download":"http://lvh.me:3000/photos/esm80lpf2kE/download"}},{"id":"bUsIoLKTk18","urls":{"regular":"https://unsplash.imgix.net/photo-1433100325891-378af68b3b8e?q=75\u0026fm=jpg\u0026w=1080\u0026fit=max\u0026s=6d8a4dfeb744406f080c535afc01c65b","small":"https://unsplash.imgix.net/photo-1433100325891-378af68b3b8e?q=75\u0026fm=jpg\u0026w=400\u0026fit=max\u0026s=a89c66d2342239b76dd5de2776cdde86","thumb":"https://unsplash.imgix.net/photo-1433100325891-378af68b3b8e?q=75\u0026fm=jpg\u0026w=200\u0026fit=max\u0026s=b8d118a9ab354492259988d5e6811f94"},"links":{"self":"http://api.lvh.me:3000/photos/bUsIoLKTk18","html":"http://lvh.me:3000/photos/bUsIoLKTk18","download":"http://lvh.me:3000/photos/bUsIoLKTk18/download"}},{"id":"OVRxj5h6n7o","urls":{"regular":"https://ununsplash.imgix.net/photo-1433094657682-205abd5f883b?q=75\u0026fm=jpg\u0026w=1080\u0026fit=max\u0026s=7ab44e3617f1b122758155343b35a29b","small":"https://ununsplash.imgix.net/photo-1433094657682-205abd5f883b?q=75\u0026fm=jpg\u0026w=400\u0026fit=max\u0026s=d38ee958dad8a8390c015ab1765004a0","thumb":"https://ununsplash.imgix.net/photo-1433094657682-205abd5f883b?q=75\u0026fm=jpg\u0026w=200\u0026fit=max\u0026s=b4a97c22b3463303394c8f77d6f760d4"},"links":{"self":"http://api.lvh.me:3000/photos/OVRxj5h6n7o","html":"http://lvh.me:3000/photos/OVRxj5h6n7o","download":"http://lvh.me:3000/photos/OVRxj5h6n7o/download"}},{"id":"KGRZFB1U25I","urls":{"regular":"https://ununsplash.imgix.net/photo-1433093833773-10e0c78a401b?q=75\u0026fm=jpg\u0026w=1080\u0026fit=max\u0026s=38e144963a4a1dfc6c68692550bf9b04","small":"https://ununsplash.imgix.net/photo-1433093833773-10e0c78a401b?q=75\u0026fm=jpg\u0026w=400\u0026fit=max\u0026s=476ab6101647ac45786915537b199327","thumb":"https://ununsplash.imgix.net/photo-1433093833773-10e0c78a401b?q=75\u0026fm=jpg\u0026w=200\u0026fit=max\u0026s=315b37cf4dee17879d9016f6b026c826"},"links":{"self":"http://api.lvh.me:3000/photos/KGRZFB1U25I","html":"http://lvh.me:3000/photos/KGRZFB1U25I","download":"http://lvh.me:3000/photos/KGRZFB1U25I/download"}},{"id":"8CCQ-55MTUw","urls":{"regular":"https://unsplash.imgix.net/photo-1433087870301-b85d84efc18a?q=75\u0026fm=jpg\u0026w=1080\u0026fit=max\u0026s=72ba2c921b8d50bda6fd64a4a8310ef8","small":"https://unsplash.imgix.net/photo-1433087870301-b85d84efc18a?q=75\u0026fm=jpg\u0026w=400\u0026fit=max\u0026s=55a324883b24065a21c4cdc0c8877d90","thumb":"https://unsplash.imgix.net/photo-1433087870301-b85d84efc18a?q=75\u0026fm=jpg\u0026w=200\u0026fit=max\u0026s=a79f21313ff22e1532ee0f4203a9603c"},"links":{"self":"http://api.lvh.me:3000/photos/8CCQ-55MTUw","html":"http://lvh.me:3000/photos/8CCQ-55MTUw","download":"http://lvh.me:3000/photos/8CCQ-55MTUw/download"}},{"id":"0Ebrm0d-G_E","urls":{"regular":"https://unsplash.imgix.net/photo-1433087639215-37846ea63501?q=75\u0026fm=jpg\u0026w=1080\u0026fit=max\u0026s=4452fdb5f2afef59a7678c27bb6a86d5","small":"https://unsplash.imgix.net/photo-1433087639215-37846ea63501?q=75\u0026fm=jpg\u0026w=400\u0026fit=max\u0026s=9bd804a341ae0b704d453288543f0c0f","thumb":"https://unsplash.imgix.net/photo-1433087639215-37846ea63501?q=75\u0026fm=jpg\u0026w=200\u0026fit=max\u0026s=95450ed3f84177040e7395b8d324cbe6"},"links":{"self":"http://api.lvh.me:3000/photos/0Ebrm0d-G_E","html":"http://lvh.me:3000/photos/0Ebrm0d-G_E","download":"http://lvh.me:3000/photos/0Ebrm0d-G_E/download"}}]'
    http_version: 
  recorded_at: Mon, 22 Jun 2015 19:34:34 GMT
- request:
    method: get
    uri: http://api.lvh.me:3000/photos/search/?page=1&per_page=4&query=dog
    body:
      encoding: US-ASCII
      string: ''
    headers:
      Authorization:
      - Client-ID baaa6a1214d50b3586bec6e06157aab859bd4d86dc0b755360f103f38974edc3
  response:
    status:
      code: 200
      message: 'OK '
    headers:
      Access-Control-Allow-Origin:
      - "*"
      Access-Control-Request-Method:
      - "*"
      Link:
      - <http://api.lvh.me:3000/photos/search?page=6&per_page=4&query=dog>; rel="last",
        <http://api.lvh.me:3000/photos/search?page=2&per_page=4&query=dog>; rel="next"
      X-Total:
      - '24'
      X-Per-Page:
      - '4'
      Cache-Control:
      - max-age=7200, public
      Content-Type:
      - application/json
      Content-Length:
      - '2644'
      Etag:
      - W/"b7b756f05ce3a55065dbac3a592d5bb7"
      X-Request-Id:
      - fd84dbae-1bb0-400c-9184-45fa0a5fdbda
      X-Ratelimit-Limit:
      - '1000'
      X-Ratelimit-Remaining:
      - '959'
      X-Runtime:
      - '0.039180'
      Server:
      - WEBrick/1.3.1 (Ruby/2.1.5/2014-11-13)
      Date:
      - Mon, 22 Jun 2015 19:34:34 GMT
      Connection:
      - Keep-Alive
    body:
      encoding: UTF-8
      string: '[{"id":"J75SjdIvfoE","urls":{"regular":"https://ununsplash.imgix.net/photo-1424915950309-955546acf037?q=75\u0026fm=jpg\u0026w=1080\u0026fit=max\u0026s=a2020e053595b065e3de1a794afe0c83","small":"https://ununsplash.imgix.net/photo-1424915950309-955546acf037?q=75\u0026fm=jpg\u0026w=400\u0026fit=max\u0026s=cba622b6ac52c5f799e9468b270df4da","thumb":"https://ununsplash.imgix.net/photo-1424915950309-955546acf037?q=75\u0026fm=jpg\u0026w=200\u0026fit=max\u0026s=3c7bb86ec4a19901d5b2d1141eaa4511"},"links":{"self":"http://api.lvh.me:3000/photos/J75SjdIvfoE","html":"http://lvh.me:3000/photos/J75SjdIvfoE","download":"http://lvh.me:3000/photos/J75SjdIvfoE/download"}},{"id":"Fu8pblIzEL0","urls":{"regular":"https://unsplash.imgix.net/photo-1425678013935-cafcfb4272c7?q=75\u0026fm=jpg\u0026w=1080\u0026fit=max\u0026s=d9aeec038e349aeaf3179be303118ace","small":"https://unsplash.imgix.net/photo-1425678013935-cafcfb4272c7?q=75\u0026fm=jpg\u0026w=400\u0026fit=max\u0026s=c0fe3331e74a24705cdfe34444590ccd","thumb":"https://unsplash.imgix.net/photo-1425678013935-cafcfb4272c7?q=75\u0026fm=jpg\u0026w=200\u0026fit=max\u0026s=441c557a1af327596ff6f141ae653585"},"links":{"self":"http://api.lvh.me:3000/photos/Fu8pblIzEL0","html":"http://lvh.me:3000/photos/Fu8pblIzEL0","download":"http://lvh.me:3000/photos/Fu8pblIzEL0/download"}},{"id":"pChE-f_gqVc","urls":{"regular":"https://unsplash.imgix.net/photo-1426287658398-5a912ce1ed0a?q=75\u0026fm=jpg\u0026w=1080\u0026fit=max\u0026s=252911cdb2fcb31be15811568e36d4f6","small":"https://unsplash.imgix.net/photo-1426287658398-5a912ce1ed0a?q=75\u0026fm=jpg\u0026w=400\u0026fit=max\u0026s=e672f02cb4736e81d4aeb6d8e1a6dc46","thumb":"https://unsplash.imgix.net/photo-1426287658398-5a912ce1ed0a?q=75\u0026fm=jpg\u0026w=200\u0026fit=max\u0026s=1fbfb0c63d75ad7d5ae454ea693b52b5"},"links":{"self":"http://api.lvh.me:3000/photos/pChE-f_gqVc","html":"http://lvh.me:3000/photos/pChE-f_gqVc","download":"http://lvh.me:3000/photos/pChE-f_gqVc/download"}},{"id":"g56z-vE98B4","urls":{"regular":"https://unsplash.imgix.net/reserve/UzWklzFdRBSbkRKhEnvc_1-6128.jpg?q=75\u0026fm=jpg\u0026w=1080\u0026fit=max\u0026s=436c1302f1e0e41e9e4e76a768827445","small":"https://unsplash.imgix.net/reserve/UzWklzFdRBSbkRKhEnvc_1-6128.jpg?q=75\u0026fm=jpg\u0026w=400\u0026fit=max\u0026s=71e0cbdaee17332f7c096747729ecb96","thumb":"https://unsplash.imgix.net/reserve/UzWklzFdRBSbkRKhEnvc_1-6128.jpg?q=75\u0026fm=jpg\u0026w=200\u0026fit=max\u0026s=cef2a72819feb95bf16fedac0b5a0217"},"links":{"self":"http://api.lvh.me:3000/photos/g56z-vE98B4","html":"http://lvh.me:3000/photos/g56z-vE98B4","download":"http://lvh.me:3000/photos/g56z-vE98B4/download"}}]'
    http_version: 
  recorded_at: Mon, 22 Jun 2015 19:34:34 GMT
- request:
    method: post
    uri: http://api.lvh.me:3000/photos
    body:
      encoding: UTF-8
      string: "-------------RubyMultipartPost\r\nContent-Disposition: form-data; name=\"photo\";
        filename=\"upload-1.txt\"\r\nContent-Length: 28\r\nContent-Type: image/jpeg\r\nContent-Transfer-Encoding:
        binary\r\n\r\nThis is an image, I promise.\r\n-------------RubyMultipartPost--\r\n\r\n"
    headers:
      User-Agent:
      - Faraday v0.9.1
      Accept-Version:
      - v1
      Authorization:
      - Bearer 69cca388c56e64fc2ee1c9f7cfb0dcec1bf1b384957b61c9ec6764777b98554e
      Content-Type:
      - multipart/form-data; boundary=-----------RubyMultipartPost
      Content-Length:
      - '252'
      Accept-Encoding:
      - gzip;q=1.0,deflate;q=0.6,identity;q=0.3
      Accept:
      - "*/*"
  response:
    status:
      code: 201
      message: 'Created '
    headers:
      Access-Control-Allow-Origin:
      - "*"
      Access-Control-Request-Method:
      - "*"
      Content-Type:
      - application/json
      Content-Length:
      - '837'
      Etag:
      - W/"b3f1c4df00dd555cf7291d18b710f650"
      Cache-Control:
      - max-age=0, private, must-revalidate
      X-Request-Id:
      - ffad3c0f-4956-437b-84c2-d6b91be5f1a7
      X-Ratelimit-Limit:
      - '1000'
      X-Ratelimit-Remaining:
      - '936'
      X-Runtime:
      - '7.559151'
      Server:
      - WEBrick/1.3.1 (Ruby/2.1.5/2014-11-13)
      Date:
      - Wed, 24 Jun 2015 18:12:00 GMT
      Connection:
      - Keep-Alive
    body:
      encoding: UTF-8
      string: '{"id":"trJ5ebffaLo","width":null,"height":null,"color":null,"urls":{"regular":"https://ununsplash.imgix.net/development/upload-1.txt?q=75&fm=jpg&w=1080&fit=max&s=a7bb5ed49eee65d5a332167259336e04","small":"https://ununsplash.imgix.net/development/upload-1.txt?q=75&fm=jpg&w=400&fit=max&s=e2c81367b4ea648377cae4f423f50be9","thumb":"https://ununsplash.imgix.net/development/upload-1.txt?q=75&fm=jpg&w=200&fit=max&s=f7ea7de3d92143ebcbd637b14a393947"},"links":{"self":"http://api.lvh.me:3000/photos/trJ5ebffaLo","html":"http://lvh.me:3000/photos/trJ5ebffaLo","download":"http://lvh.me:3000/photos/trJ5ebffaLo/download"},"user":{"id":"2b09BkkiAN0","username":"aarondev","name":"James
        Jangly","links":{"self":"http://api.lvh.me:3000/users/aarondev","html":"http://lvh.me:3000/aarondev","photos":"http://api.lvh.me:3000/users/aarondev/photos"}}}'
    http_version: 
  recorded_at: Wed, 24 Jun 2015 18:12:00 GMT
- request:
    method: post
    uri: http://api.lvh.me:3000/photos?photo=%23%3CUploadIO:0x007ffdc306c138%3E
    body:
      encoding: UTF-8
      string: ''
    headers:
      Authorization:
      - Client-ID baaa6a1214d50b3586bec6e06157aab859bd4d86dc0b755360f103f38974edc3
  response:
    status:
      code: 401
      message: 'Unauthorized '
    headers:
      Content-Type:
      - application/json
      Access-Control-Allow-Origin:
      - "*"
      Access-Control-Request-Method:
      - "*"
      Content-Length:
      - '1183'
      Cache-Control:
      - no-cache
      X-Request-Id:
      - a9e5db49-c151-4861-ae95-b31f7e06a03f
      X-Ratelimit-Limit:
      - '1000'
      X-Ratelimit-Remaining:
      - '935'
      X-Runtime:
      - '0.026895'
      Server:
      - WEBrick/1.3.1 (Ruby/2.1.5/2014-11-13)
      Date:
      - Wed, 24 Jun 2015 18:12:27 GMT
      Connection:
      - Keep-Alive
    body:
      encoding: UTF-8
      string: '{"errors":["OAuth error: unauthorized"]}'
    http_version: 
  recorded_at: Wed, 24 Jun 2015 18:12:27 GMT
- request:
    method: get
    uri: http://api.lvh.me:3000/photos/random?category=2&featured=true&h=200&w=320
    body:
      encoding: US-ASCII
      string: ''
    headers:
      Authorization:
      - Client-ID baaa6a1214d50b3586bec6e06157aab859bd4d86dc0b755360f103f38974edc3
  response:
    status:
      code: 200
      message: 'OK '
    headers:
      Access-Control-Allow-Origin:
      - "*"
      Access-Control-Request-Method:
      - "*"
      Cache-Control:
      - max-age=7200, public
      Content-Type:
      - application/json
      Content-Length:
      - '1019'
      Etag:
      - W/"ceed43741a34403d310d121baca786ce"
      X-Request-Id:
      - a018905a-2c77-438d-b91c-a8bf94c020f2
      X-Ratelimit-Limit:
      - '100'
      X-Ratelimit-Remaining:
      - '99'
      X-Runtime:
      - '0.888167'
      Server:
      - WEBrick/1.3.1 (Ruby/2.1.6/2015-04-13)
      Date:
      - Thu, 17 Sep 2015 19:02:42 GMT
      Connection:
      - Keep-Alive
    body:
      encoding: UTF-8
      string: '{"id":"71cd1rWqO8M","width":4912,"height":2760,"color":"#A5A6A8","downloads":0,"urls":{"regular":"https://images.unsplash.com/photo-1439396087961-98bc12c21176?q=80&fm=jpg&w=1080&fit=max&s=f8996e1e2b77977a7e3e32aa04d19add","small":"https://images.unsplash.com/photo-1439396087961-98bc12c21176?q=80&fm=jpg&w=400&fit=max&s=e3a9108d5c4fb01d9ad1993cf42628b4","thumb":"https://images.unsplash.com/photo-1439396087961-98bc12c21176?q=80&fm=jpg&w=200&fit=max&s=165bfa58384d6ebfcfcf7155faa0667d","custom":"https://images.unsplash.com/photo-1439396087961-98bc12c21176?q=80&fm=jpg&w=320&h=200&s=4aff6f3902c372af4589cdd0c7b1b1de"},"links":{"self":"http://api.lvh.me:3000/photos/71cd1rWqO8M","html":"http://lvh.me:3000/photos/71cd1rWqO8M","download":"http://lvh.me:3000/photos/71cd1rWqO8M/download"},"user":{"id":"tATi714XXzE","username":"lili_popper","name":"Lili
        Popper","links":{"self":"http://api.lvh.me:3000/users/lili_popper","html":"http://lvh.me:3000/lili_popper","photos":"http://api.lvh.me:3000/users/lili_popper/photos"}}}'
    http_version: 
  recorded_at: Thu, 17 Sep 2015 19:02:42 GMT
- request:
    method: get
    uri: http://api.lvh.me:3000/photos/random?username=bigfoot
    body:
      encoding: US-ASCII
      string: ''
    headers:
      Authorization:
      - Client-ID baaa6a1214d50b3586bec6e06157aab859bd4d86dc0b755360f103f38974edc3
  response:
    status:
      code: 404
      message: 'Not Found '
    headers:
      Content-Type:
      - application/json
      Access-Control-Allow-Origin:
      - "*"
      Access-Control-Request-Method:
      - "*"
      Content-Length:
      - '1227'
      Cache-Control:
      - no-cache
      X-Request-Id:
      - 5afe523f-79de-41f2-a81c-f050e376b11d
      X-Ratelimit-Limit:
      - '100'
      X-Ratelimit-Remaining:
      - '97'
      X-Runtime:
      - '0.026297'
      Server:
      - WEBrick/1.3.1 (Ruby/2.1.6/2015-04-13)
      Date:
      - Thu, 17 Sep 2015 19:05:15 GMT
      Connection:
      - Keep-Alive
    body:
      encoding: UTF-8
      string: '{"errors":["Couldn''t find User"],"trace":["/Users/aaron/.rvm/gems/ruby-2.1.6@unsplash/gems/activerecord-4.2.1/lib/active_record/core.rb:196:in
        `find_by!''","/Users/aaron/source/unsplash/app/api/unsplash_api/v1/photos.rb:64:in
        `block (2 levels) in \u003cclass:Photos\u003e''","/Users/aaron/.rvm/gems/ruby-2.1.6@unsplash/gems/grape-0.11.0/lib/grape/endpoint.rb:47:in
        `call''","/Users/aaron/.rvm/gems/ruby-2.1.6@unsplash/gems/grape-0.11.0/lib/grape/endpoint.rb:47:in
        `block in generate_api_method''","/Users/aaron/.rvm/gems/ruby-2.1.6@unsplash/gems/grape-0.11.0/lib/grape/endpoint.rb:247:in
        `call''","/Users/aaron/.rvm/gems/ruby-2.1.6@unsplash/gems/grape-0.11.0/lib/grape/endpoint.rb:247:in
        `run''","/Users/aaron/.rvm/gems/ruby-2.1.6@unsplash/gems/grape-0.11.0/lib/grape/endpoint.rb:195:in
        `block in call!''","/Users/aaron/.rvm/gems/ruby-2.1.6@unsplash/gems/newrelic-grape-2.0.0/lib/newrelic-grape/instrument.rb:21:in
        `call''","/Users/aaron/.rvm/gems/ruby-2.1.6@unsplash/gems/newrelic-grape-2.0.0/lib/newrelic-grape/instrument.rb:21:in
        `block in call!''","/Users/aaron/.rvm/gems/ruby-2.1.6@unsplash/gems/newrelic_rpm-3.9.0.229/lib/new_relic/agent/instrumentation/controller_instrumentation.rb:364:in
        `perform_action_with_newrelic_trace''"]}'
    http_version: 
  recorded_at: Thu, 17 Sep 2015 19:05:15 GMT
recorded_with: VCR 2.9.3
